<h2>CatPhotoApp</h2>
<main>
  <p>Click here to view more <a href="#">cat photos</a>.</p>

  <a href="#"><img src="https://cdn.freecodecamp.org/curriculum/cat-photo-app/relaxing-cat.jpg" alt="A cute orange cat lying on its back."></a>

  <ul>
    <li>One</li>
    <li>Two</li>
    <li>Three</li>
    </ul>